…
col_descriptors <- 
  input_path %>% 
  read_excel() %>% 
  .[1,] %>% 
  as.character() %>% 
  setNames(object = ., nm = col_names)

webinar_data
```

    ## # A tibble: 37 x 22
    ##    pre_confident_o… pre_support_adv… pre_important_c… pre_value_mento…
    ##    <ord>            <ord>            <ord>            <ord>           
    ##  1 Somewhat disagr… Neither agree n… Strongly agree   Strongly agree  
    ##  2 Strongly agree   Strongly agree   Strongly agree   Strongly agree  
    ##  3 Somewhat agree   Strongly agree   Strongly agree   Strongly agree  
    ##  4 Somewhat agree   Neither agree n… Strongly agree   Strongly agree  
    ##  5 Strongly agree   Somewhat agree   Strongly agree   Somewhat agree  
    ##  6 Somewhat disagr… Somewhat agree   Strongly agree   Strongly agree  
    ##  7 Somewhat agree   Strongly disagr… Somewhat agree   Strongly agree  
    ##  8 Strongly agree   Neither agree n… Strongly agree   Strongly agree  
    ##  9 Strongly agree   Strongly agree   Strongly agree   Strongly agree  
    ## 10 Strongly agree   Somewhat agree   Strongly agree   Strongly agree  
    ## # … with 27 more rows, and 18 more variables: pre_concern_applying <ord>,
    ## #   pre_prepared_applying <ord>, pre_asset_hindrance <ord>,
    ## #   pre_asset_hindrance_comment <ord>, what_are_your_concerns <ord>,
    ## #   experiences_premed_advising <chr>, post_confident_out <ord>,
    ## #   post_support_advisors <ord>, post_important_community <ord>,
    ## #   post_value_mentors_advisors <ord>, webinar_helped <ord>,
    ## #   post_concern_applying <ord>, post_prepared_applying <ord>,
    ## #   post_asset_hindrance <ord>, asset_hindrance_changed <ord>,
    ## #   new_concerns <ord>, final_comments <chr>, respondent_id <int>
…
