…
    ## 
    ## $sentiment_words
    ## # A tibble: 2,986 × 4
    ##    what_attitudes_strategies_or_skills_d                   form_…¹ word  senti…²
    ##    <chr>                                                   <chr>   <chr> <chr>  
    ##  1 Differents                                              317220  diff… <NA>   
    ##  2 proper health history                                   267477  prop… positi…
    ##  3 proper health history                                   267477  heal… <NA>   
    ##  4 proper health history                                   267477  hist… <NA>   
    ##  5 I will be able to teach these types of topics as well … 270475  i     <NA>   
    ##  6 I will be able to teach these types of topics as well … 270475  will  <NA>   
    ##  7 I will be able to teach these types of topics as well … 270475  be    <NA>   
    ##  8 I will be able to teach these types of topics as well … 270475  able  <NA>   
    ##  9 I will be able to teach these types of topics as well … 270475  to    <NA>   
    ## 10 I will be able to teach these types of topics as well … 270475  teach joy    
    ## # … with 2,976 more rows, and abbreviated variable names ¹​form_submission_id,
    ## #   ²​sentiment
    ## 
    ## $sentiments_plot
…
    ## 
    ## $sentiment_words
    ## # A tibble: 851 × 4
    ##    do_you_have_specific_suggestions_as_to form_submission_id word        senti…¹
    ##    <chr>                                  <chr>              <chr>       <chr>  
    ##  1 Yea the test                           317220             yea         <NA>   
    ##  2 Yea the test                           317220             the         <NA>   
    ##  3 Yea the test                           317220             test        <NA>   
    ##  4 documentation                          267477             documentat… <NA>   
    ##  5 Yes CME Activity might be improved     315659             yes         <NA>   
    ##  6 Yes CME Activity might be improved     315659             cme         <NA>   
    ##  7 Yes CME Activity might be improved     315659             activity    <NA>   
    ##  8 Yes CME Activity might be improved     315659             might       <NA>   
    ##  9 Yes CME Activity might be improved     315659             be          <NA>   
    ## 10 Yes CME Activity might be improved     315659             improved    positi…
    ## # … with 841 more rows, and abbreviated variable name ¹​sentiment
    ## 
    ## $sentiments_plot
…
    ## 
    ## $sentiment_words
    ## # A tibble: 487 × 4
    ##    what_specific_topics_in_this_subject form_submission_id word          senti…¹
    ##    <chr>                                <chr>              <chr>         <chr>  
    ##  1 "\r\n\r\n\r\n\r\nNo"                 317220             no            <NA>   
    ##  2 "documentation"                      267477             documentation <NA>   
    ##  3 "All the topics are covered."        315659             all           <NA>   
    ##  4 "All the topics are covered."        315659             the           <NA>   
    ##  5 "All the topics are covered."        315659             topics        <NA>   
    ##  6 "All the topics are covered."        315659             are           <NA>   
    ##  7 "All the topics are covered."        315659             covered       <NA>   
    ##  8 "n/a"                                293493             n             <NA>   
    ##  9 "n/a"                                293493             a             <NA>   
    ## 10 "The whole course is useful."        506613             the           <NA>   
    ## # … with 477 more rows, and abbreviated variable name ¹​sentiment
…
    ## 
    ## $sentiment_words
    ## # A tibble: 4,983 × 3
    ##    response_id word     sentiment
    ##          <int> <chr>    <chr>    
    ##  1           2 i        <NA>     
    ##  2           2 think    <NA>     
    ##  3           2 that     <NA>     
    ##  4           2 changing <NA>     
    ##  5           2 one      <NA>     
    ##  6           2 of       <NA>     
    ##  7           2 the      <NA>     
    ##  8           2 courses  <NA>     
    ##  9           2 women's  <NA>     
    ## 10           2 health   <NA>     
    ## # … with 4,973 more rows
…
    ## 
    ## $sentiment_words
    ## # A tibble: 6,748 × 3
    ##    response_id word       sentiment   
    ##          <int> <chr>      <chr>       
    ##  1           2 the        <NA>        
    ##  2           2 importance anticipation
    ##  3           2 importance positive    
    ##  4           2 of         <NA>        
    ##  5           2 discussing <NA>        
    ##  6           2 an         <NA>        
    ##  7           2 advanced   positive    
    ##  8           2 directive  <NA>        
    ##  9           2 with       <NA>        
    ## 10           2 all        <NA>        
    ## # … with 6,738 more rows
…
    ## 
    ## $sentiment_words
    ## # A tibble: 5,657 × 3
    ##    response_id word     sentiment
    ##          <int> <chr>    <chr>    
    ##  1           2 having   <NA>     
    ##  2           2 students <NA>     
    ##  3           2 practice positive 
    ##  4           2 taking   <NA>     
    ##  5           2 a        <NA>     
    ##  6           2 sexual   <NA>     
    ##  7           2 history  <NA>     
    ##  8           2 while    <NA>     
    ##  9           2 being    <NA>     
    ## 10           2 sure     <NA>     
    ## # … with 5,647 more rows
