…
outness_data
```

    ## # A tibble: 17,400 x 27
    ##    race_native race_asian race_black race_pi race_white race_hispanic gender_man
    ##    <chr>       <chr>      <chr>      <chr>   <chr>      <chr>         <chr>     
    ##  1 no          no         no         no      yes        no            no        
    ##  2 no          no         no         no      yes        no            no        
    ##  3 no          no         no         no      yes        no            no        
    ##  4 no          no         no         no      yes        no            no        
    ##  5 no          no         no         no      yes        no            no        
    ##  6 no          no         no         no      yes        no            no        
    ##  7 no          no         no         no      yes        no            no        
    ##  8 no          no         no         no      yes        no            no        
    ##  9 no          no         no         no      yes        no            no        
    ## 10 no          no         no         no      yes        no            no        
    ## # … with 17,390 more rows, and 20 more variables: gender_woman <chr>,
    ## #   gender_agender <chr>, gender_genderqueer <chr>, gender_transman <chr>,
    ## #   gender_transwoman <chr>, `gender_gender-expansive` <chr>, so_asexual <chr>,
    ## #   so_bisexual <chr>, so_gay <chr>, so_lesbian <chr>, so_pansexual <chr>,
    ## #   so_queer <chr>, so_questioning <chr>, so_heterosexual <chr>, is_urm <chr>,
    ## #   school_attend <chr>, is_lgbtq <chr>, variable <chr>, context <chr>,
    ## #   is_out <chr>
…
